<svg width="29" height="29" viewBox="0 0 29 29" fill="none" xmlns="http://www.w3.org/2000/svg">
<path d="M18.125 17.6719C18.6083 17.6719 19.0312 17.4906 19.3937 17.1281C19.7563 16.7807 19.9375 16.3578 19.9375 15.8594C19.9375 15.4365 19.8016 15.0589 19.5297 14.7266C19.8016 14.4094 19.9375 14.0318 19.9375 13.5938C19.9375 13.1104 19.7563 12.6875 19.3937 12.325C19.0312 11.9625 18.6083 11.7812 18.125 11.7812H14.9531V17.6719H18.125ZM18.125 14.0469H16.3125V13.1406H18.125C18.2609 13.1406 18.3667 13.1859 18.4422 13.2766L18.5781 13.5938L18.4422 13.9109C18.3667 14.0016 18.2609 14.0469 18.125 14.0469ZM21.75 7.25C24.1667 7.25 25.375 8.45833 25.375 10.875V18.125C25.375 20.5417 24.1667 21.75 21.75 21.75H7.25C4.83333 21.75 3.625 20.5417 3.625 18.125V14.5C3.625 12.5062 4.3349 10.7995 5.75469 9.37969C7.17448 7.9599 8.88125 7.25 10.875 7.25H21.75ZM18.125 16.3125H16.3125V15.4062H18.125C18.2609 15.4062 18.3667 15.4516 18.4422 15.5422L18.5781 15.8594L18.4422 16.1766C18.3667 16.2672 18.2609 16.3125 18.125 16.3125ZM10.875 16.3125V11.7812H9.51562V17.6719H13.5938V16.3125H10.875Z" fill="white"/>
</svg>
