%YAML 1.1
%TAG !u! tag:unity3d.com,2011:
--- !u!114 &11400000
MonoBehaviour:
  m_ObjectHideFlags: 0
  m_CorrespondingSourceObject: {fileID: 0}
  m_PrefabInstance: {fileID: 0}
  m_PrefabAsset: {fileID: 0}
  m_GameObject: {fileID: 0}
  m_Enabled: 1
  m_EditorHideFlags: 0
  m_Script: {fileID: 11500000, guid: e0a389b1713933641a164e9b17027006, type: 3}
  m_Name: Info L Fuel 0
  m_EditorClassIdentifier: 
  _levelName: 
  _TimeStar0: 1000000
  _TimeStar1: 10000
  _TimeStar2: 19
  _TimeStar3: 13
  _TimeStar4: 0
  publicKey: 
  privateKey: 
