# Blender v3.2.2 OBJ File: 'ClumsyRocketship.blend'
# www.blender.org
mtllib Platform.mtl
o Platform_Cube.030
v 7.862998 -17.968567 0.999999
v 5.862998 -17.968567 0.999999
v 7.862998 -17.968567 -1.000001
v 5.862998 -17.968567 -1.000001
v 7.862999 -0.682514 0.999999
v 5.862999 -0.682514 0.999999
v 7.862999 -0.682514 -1.000001
v 5.862999 -0.682514 -1.000001
v -18.357773 -11.620640 -21.974806
v -18.357773 -0.403372 -21.974806
v -18.357773 -11.620640 -23.974806
v -18.357773 -0.403372 -23.974806
v -16.357773 -11.620641 -21.974806
v -16.357773 -0.403372 -21.974806
v -16.357773 -11.620641 -23.974806
v -16.357773 -0.403372 -23.974806
v -18.357773 -14.344109 -23.974806
v -18.357773 -12.909085 -21.974806
v -16.357773 -14.344109 -23.974806
v -16.357773 -12.909085 -21.974806
v -18.357771 -18.978432 -17.891499
v -18.357773 -16.059942 -17.891499
v -16.357771 -18.978432 -17.891499
v -16.357773 -16.059942 -17.891499
v -18.357771 -18.978434 -3.366841
v -18.357773 -16.059944 -3.366841
v -16.357771 -18.978434 -3.366841
v -16.357773 -16.059944 -3.366841
v -18.357773 -1.000000 21.349291
v -23.870914 -1.000001 15.836152
v -23.870914 -0.021984 15.836152
v -18.357773 -0.021983 21.349291
v -23.870914 -1.000001 -20.557175
v -18.357773 -1.000000 -26.070314
v -18.357773 -0.021983 -26.070314
v -23.870914 -0.021984 -20.557173
v 23.870914 -1.000000 15.836152
v 18.357773 -1.000001 21.349291
v 18.357773 -0.021983 21.349291
v 23.870914 -0.021982 15.836152
v 18.357773 -1.000001 -26.070314
v 23.870914 -1.000000 -20.557173
v 23.870914 -0.021982 -20.557175
v 18.357773 -0.021983 -26.070314
v 16.357773 -11.620640 -21.974806
v 16.357773 -0.403371 -21.974806
v 16.357773 -11.620640 -23.974806
v 16.357773 -0.403371 -23.974806
v 18.357773 -11.620641 -21.974806
v 18.357773 -0.403371 -21.974806
v 18.357773 -11.620641 -23.974806
v 18.357773 -0.403371 -23.974806
v 16.357773 -14.344110 -23.974806
v 16.357773 -12.909086 -21.974806
v 18.357773 -14.344109 -23.974806
v 18.357773 -12.909085 -21.974806
v 16.357773 -18.978432 -17.891499
v 16.357773 -16.059944 -17.891499
v 18.357773 -18.978432 -17.891499
v 18.357773 -16.059942 -17.891499
v 16.357773 -18.978436 -3.366841
v 16.357773 -16.059946 -3.366841
v 18.357773 -18.978436 -3.366841
v 18.357773 -16.059944 -3.366841
v -5.370900 -17.968567 0.999999
v -7.370900 -17.968567 0.999999
v -5.370900 -17.968567 -1.000001
v -7.370900 -17.968567 -1.000001
v -5.370898 -0.682515 0.999999
v -7.370898 -0.682515 0.999999
v -5.370898 -0.682515 -1.000001
v -7.370898 -0.682515 -1.000001
v 18.357780 -11.620640 16.489532
v 18.357780 -0.403372 16.489532
v 18.357780 -11.620640 18.489532
v 18.357780 -0.403372 18.489532
v 16.357780 -11.620641 16.489532
v 16.357780 -0.403372 16.489532
v 16.357780 -11.620641 18.489532
v 16.357780 -0.403372 18.489532
v 18.357780 -14.344109 18.489532
v 18.357780 -12.909085 16.489532
v 16.357780 -14.344110 18.489532
v 16.357780 -12.909085 16.489532
v 18.357780 -18.978432 12.406224
v 18.357780 -16.059942 12.406224
v 16.357780 -18.978432 12.406224
v 16.357780 -16.059944 12.406224
v 18.357780 -18.978434 -2.118432
v 18.357780 -16.059944 -2.118432
v 16.357780 -18.978436 -2.118432
v 16.357780 -16.059944 -2.118432
v -16.357765 -11.620640 16.489529
v -16.357765 -0.403371 16.489529
v -16.357765 -11.620640 18.489529
v -16.357765 -0.403371 18.489529
v -18.357765 -11.620641 16.489529
v -18.357765 -0.403371 16.489529
v -18.357765 -11.620641 18.489529
v -18.357765 -0.403371 18.489529
v -16.357765 -14.344110 18.489529
v -16.357765 -12.909086 16.489529
v -18.357765 -14.344109 18.489529
v -18.357765 -12.909085 16.489529
v -16.357765 -18.978432 12.406220
v -16.357765 -16.059944 12.406220
v -18.357765 -18.978432 12.406220
v -18.357765 -16.059942 12.406220
v -16.357761 -18.978434 -2.118439
v -16.357765 -16.059944 -2.118439
v -18.357761 -18.978436 -2.118439
v -18.357765 -16.059944 -2.118439
vt 0.375000 0.000000
vt 0.625000 0.000000
vt 0.625000 0.250000
vt 0.375000 0.250000
vt 0.625000 0.500000
vt 0.375000 0.500000
vt 0.625000 0.750000
vt 0.375000 0.750000
vt 0.625000 1.000000
vt 0.375000 1.000000
vt 0.125000 0.500000
vt 0.125000 0.750000
vt 0.875000 0.500000
vt 0.875000 0.750000
vt 0.375000 0.000000
vt 0.625000 0.000000
vt 0.625000 0.250000
vt 0.375000 0.250000
vt 0.625000 0.500000
vt 0.375000 0.500000
vt 0.625000 0.750000
vt 0.375000 0.750000
vt 0.625000 1.000000
vt 0.375000 1.000000
vt 0.375000 0.500000
vt 0.375000 0.250000
vt 0.875000 0.500000
vt 0.875000 0.750000
vt 0.375000 0.750000
vt 0.375000 0.750000
vt 0.375000 0.500000
vt 0.375000 0.000000
vt 0.375000 1.000000
vt 0.375000 0.750000
vt 0.375000 0.500000
vt 0.375000 0.250000
vt 0.375000 0.000000
vt 0.375000 1.000000
vt 0.125000 0.500000
vt 0.125000 0.750000
vt 0.375000 0.250000
vt 0.375000 0.000000
vt 0.375000 1.000000
vt 0.375000 0.778870
vt 0.625000 0.778870
vt 0.625000 0.971130
vt 0.375000 0.971130
vt 0.375000 0.529066
vt 0.625000 0.529066
vt 0.625000 0.720934
vt 0.375000 0.720934
vt 0.653870 0.500000
vt 0.846130 0.500000
vt 0.875000 0.529066
vt 0.875000 0.720934
vt 0.846130 0.750000
vt 0.653870 0.750000
vt 0.375000 0.029066
vt 0.625000 0.029066
vt 0.625000 0.220934
vt 0.375000 0.220934
vt 0.375000 0.278870
vt 0.625000 0.278870
vt 0.625000 0.471130
vt 0.375000 0.471130
vt 0.375000 0.000000
vt 0.625000 0.000000
vt 0.125000 0.529066
vt 0.153870 0.500000
vt 0.346130 0.500000
vt 0.346130 0.750000
vt 0.153870 0.750000
vt 0.125000 0.720934
vt 0.375000 0.000000
vt 0.625000 0.000000
vt 0.625000 0.250000
vt 0.375000 0.250000
vt 0.625000 0.500000
vt 0.375000 0.500000
vt 0.625000 0.750000
vt 0.375000 0.750000
vt 0.625000 1.000000
vt 0.375000 1.000000
vt 0.375000 0.500000
vt 0.375000 0.250000
vt 0.875000 0.500000
vt 0.875000 0.750000
vt 0.375000 0.750000
vt 0.375000 0.750000
vt 0.375000 0.500000
vt 0.375000 0.000000
vt 0.375000 1.000000
vt 0.375000 0.750000
vt 0.375000 0.500000
vt 0.375000 0.250000
vt 0.375000 0.000000
vt 0.375000 1.000000
vt 0.125000 0.500000
vt 0.125000 0.750000
vt 0.375000 0.250000
vt 0.375000 0.000000
vt 0.375000 1.000000
vt 0.375000 0.000000
vt 0.625000 0.000000
vt 0.625000 0.250000
vt 0.375000 0.250000
vt 0.625000 0.500000
vt 0.375000 0.500000
vt 0.625000 0.750000
vt 0.375000 0.750000
vt 0.625000 1.000000
vt 0.375000 1.000000
vt 0.125000 0.500000
vt 0.125000 0.750000
vt 0.875000 0.500000
vt 0.875000 0.750000
vt 0.375000 0.000000
vt 0.625000 0.000000
vt 0.625000 0.250000
vt 0.375000 0.250000
vt 0.625000 0.500000
vt 0.375000 0.500000
vt 0.625000 0.750000
vt 0.375000 0.750000
vt 0.625000 1.000000
vt 0.375000 1.000000
vt 0.375000 0.500000
vt 0.375000 0.250000
vt 0.875000 0.500000
vt 0.875000 0.750000
vt 0.375000 0.750000
vt 0.375000 0.750000
vt 0.375000 0.500000
vt 0.375000 0.000000
vt 0.375000 1.000000
vt 0.375000 0.750000
vt 0.375000 0.500000
vt 0.375000 0.250000
vt 0.375000 0.000000
vt 0.375000 1.000000
vt 0.125000 0.500000
vt 0.125000 0.750000
vt 0.375000 0.250000
vt 0.375000 0.000000
vt 0.375000 1.000000
vt 0.375000 0.000000
vt 0.625000 0.000000
vt 0.625000 0.250000
vt 0.375000 0.250000
vt 0.625000 0.500000
vt 0.375000 0.500000
vt 0.625000 0.750000
vt 0.375000 0.750000
vt 0.625000 1.000000
vt 0.375000 1.000000
vt 0.375000 0.500000
vt 0.375000 0.250000
vt 0.875000 0.500000
vt 0.875000 0.750000
vt 0.375000 0.750000
vt 0.375000 0.750000
vt 0.375000 0.500000
vt 0.375000 0.000000
vt 0.375000 1.000000
vt 0.375000 0.750000
vt 0.375000 0.500000
vt 0.375000 0.250000
vt 0.375000 0.000000
vt 0.375000 1.000000
vt 0.125000 0.500000
vt 0.125000 0.750000
vt 0.375000 0.250000
vt 0.375000 0.000000
vt 0.375000 1.000000
vn 0.0000 -1.0000 0.0000
vn 0.0000 0.0000 -1.0000
vn 0.0000 1.0000 0.0000
vn 0.0000 0.0000 1.0000
vn 1.0000 -0.0000 0.0000
vn -1.0000 0.0000 0.0000
vn 0.0000 0.7917 0.6109
vn 0.0000 -0.7955 -0.6060
vn -0.7071 0.0000 0.7071
vn -0.7071 0.0000 -0.7071
vn 0.7071 -0.0000 -0.7071
vn 0.7071 0.0000 0.7071
vn -0.0000 0.7917 -0.6109
vn 0.0000 -0.7955 0.6060
g Platform_Cube.030_None
usemtl None
s off
f 1/1/1 2/2/1 4/3/1 3/4/1
f 3/4/2 4/3/2 8/5/2 7/6/2
f 7/6/3 8/5/3 6/7/3 5/8/3
f 5/8/4 6/7/4 2/9/4 1/10/4
f 3/11/5 7/6/5 5/8/5 1/12/5
f 8/5/6 4/13/6 2/14/6 6/7/6
f 9/15/6 10/16/6 12/17/6 11/18/6
f 11/18/2 12/17/2 16/19/2 15/20/2
f 15/20/5 16/19/5 14/21/5 13/22/5
f 13/22/4 14/21/4 10/23/4 9/24/4
f 11/18/2 15/20/2 19/25/2 17/26/2
f 16/19/3 12/27/3 10/28/3 14/21/3
f 19/25/5 20/29/5 24/30/5 23/31/5
f 9/15/6 11/18/6 17/26/6 18/32/6
f 15/20/5 13/22/5 20/29/5 19/25/5
f 13/22/4 9/24/4 18/33/4 20/29/4
f 23/31/5 24/30/5 28/34/5 27/35/5
f 18/32/6 17/26/6 21/36/6 22/37/6
f 20/29/7 18/33/7 22/38/7 24/30/7
f 17/26/8 19/25/8 23/31/8 21/36/8
f 25/39/4 27/35/4 28/34/4 26/40/4
f 22/37/6 21/36/6 25/41/6 26/42/6
f 24/30/3 22/38/3 26/43/3 28/34/3
f 21/36/1 23/31/1 27/35/1 25/41/1
f 38/44/4 39/45/4 32/46/4 29/47/4
f 42/48/5 43/49/5 40/50/5 37/51/5
f 43/49/3 44/52/3 35/53/3 36/54/3 31/55/3 32/56/3 39/57/3 40/50/3
f 30/58/6 31/59/6 36/60/6 33/61/6
f 34/62/2 35/63/2 44/64/2 41/65/2
f 29/66/9 32/67/9 31/59/9 30/58/9
f 35/63/10 34/62/10 33/61/10 36/60/10
f 43/49/11 42/48/11 41/65/11 44/64/11
f 39/45/12 38/44/12 37/51/12 40/50/12
f 33/68/1 34/69/1 41/70/1 42/48/1 37/51/1 38/71/1 29/72/1 30/73/1
f 45/74/6 46/75/6 48/76/6 47/77/6
f 47/77/2 48/76/2 52/78/2 51/79/2
f 51/79/5 52/78/5 50/80/5 49/81/5
f 49/81/4 50/80/4 46/82/4 45/83/4
f 47/77/2 51/79/2 55/84/2 53/85/2
f 52/78/3 48/86/3 46/87/3 50/80/3
f 55/84/5 56/88/5 60/89/5 59/90/5
f 45/74/6 47/77/6 53/85/6 54/91/6
f 51/79/5 49/81/5 56/88/5 55/84/5
f 49/81/4 45/83/4 54/92/4 56/88/4
f 59/90/5 60/89/5 64/93/5 63/94/5
f 54/91/6 53/85/6 57/95/6 58/96/6
f 56/88/7 54/92/7 58/97/7 60/89/7
f 53/85/8 55/84/8 59/90/8 57/95/8
f 61/98/4 63/94/4 64/93/4 62/99/4
f 58/96/6 57/95/6 61/100/6 62/101/6
f 60/89/3 58/97/3 62/102/3 64/93/3
f 57/95/1 59/90/1 63/94/1 61/100/1
f 65/103/1 66/104/1 68/105/1 67/106/1
f 67/106/2 68/105/2 72/107/2 71/108/2
f 71/108/3 72/107/3 70/109/3 69/110/3
f 69/110/4 70/109/4 66/111/4 65/112/4
f 67/113/5 71/108/5 69/110/5 65/114/5
f 72/107/6 68/115/6 66/116/6 70/109/6
f 73/117/5 74/118/5 76/119/5 75/120/5
f 75/120/4 76/119/4 80/121/4 79/122/4
f 79/122/6 80/121/6 78/123/6 77/124/6
f 77/124/2 78/123/2 74/125/2 73/126/2
f 75/120/4 79/122/4 83/127/4 81/128/4
f 80/121/3 76/129/3 74/130/3 78/123/3
f 83/127/6 84/131/6 88/132/6 87/133/6
f 73/117/5 75/120/5 81/128/5 82/134/5
f 79/122/6 77/124/6 84/131/6 83/127/6
f 77/124/2 73/126/2 82/135/2 84/131/2
f 87/133/6 88/132/6 92/136/6 91/137/6
f 82/134/5 81/128/5 85/138/5 86/139/5
f 84/131/13 82/135/13 86/140/13 88/132/13
f 81/128/14 83/127/14 87/133/14 85/138/14
f 89/141/2 91/137/2 92/136/2 90/142/2
f 86/139/5 85/138/5 89/143/5 90/144/5
f 88/132/3 86/140/3 90/145/3 92/136/3
f 85/138/1 87/133/1 91/137/1 89/143/1
f 93/146/5 94/147/5 96/148/5 95/149/5
f 95/149/4 96/148/4 100/150/4 99/151/4
f 99/151/6 100/150/6 98/152/6 97/153/6
f 97/153/2 98/152/2 94/154/2 93/155/2
f 95/149/4 99/151/4 103/156/4 101/157/4
f 100/150/3 96/158/3 94/159/3 98/152/3
f 103/156/6 104/160/6 108/161/6 107/162/6
f 93/146/5 95/149/5 101/157/5 102/163/5
f 99/151/6 97/153/6 104/160/6 103/156/6
f 97/153/2 93/155/2 102/164/2 104/160/2
f 107/162/6 108/161/6 112/165/6 111/166/6
f 102/163/5 101/157/5 105/167/5 106/168/5
f 104/160/13 102/164/13 106/169/13 108/161/13
f 101/157/14 103/156/14 107/162/14 105/167/14
f 109/170/2 111/166/2 112/165/2 110/171/2
f 106/168/5 105/167/5 109/172/5 110/173/5
f 108/161/3 106/169/3 110/174/3 112/165/3
f 105/167/1 107/162/1 111/166/1 109/172/1
