# ProBuilder 5.2.2
# https://unity3d.com/unity/features/worldbuilding/probuilder
# 2024-06-19 4:09:33 PM

mtllib ./lvl_wall_2.mtl
o lvl wall 2

g lvl wall 1 (2)
v -31.0654 -20.31517 -0.6869353
v -31.06545 -38.83388 3.682652
v -31.06545 -38.83388 -0.6869353
v -31.06535 -1.796448 -0.6869353
v -31.06524 35.24097 3.682652
v -31.06529 16.72226 -0.6869353
v -31.06524 35.24097 -0.6869353
v 28.51553 7.770996 -0.6869353
v 28.50918 35.24097 3.682652
v 28.50918 35.24097 -0.6869353
v 28.52191 -1.796448 -0.6869353
v 28.53464 -38.83388 3.682652
v 28.52827 -20.31517 -0.6869353
v 28.53464 -38.83388 -0.6869353
v -16.17164 35.24097 -0.6869353
v -1.278035 35.24097 -0.6869353
v 13.61557 35.24097 -0.6869353
v 13.63461 -38.83388 -0.6869353
v -1.265409 -38.83388 -0.6869353
v -16.16543 -38.83388 -0.6869353
v -7.274063 -20.31517 -2.894618
v -16.16854 -1.796448 -0.6869353
v -16.16699 -20.31517 -0.6869353
v -1.271726 12.54056 1.804453
v 13.62985 -20.31517 -0.6869353
v 13.62509 -1.796448 -0.6869353
v 13.62033 11.33011 -1.970531
v -1.274877 16.72226 -0.6869353
v -16.17009 27.14176 -1.196159

vt -0.6869353 -20.31526
vt 3.682652 -38.83397
vt -0.6869353 -38.83397
vt -0.6869353 -1.796537
vt 3.682652 35.24088
vt -0.6869353 16.72217
vt -0.6869353 35.24088
vt 0.6828455 7.761025
vt -3.68674 35.231
vt 0.6828464 35.231
vt 0.6828446 -1.80642
vt -3.686744 -38.84385
vt 0.6828437 -20.32514
vt 0.6828428 -38.84385
vt 16.17164 -0.6869353
vt 31.06524 3.682652
vt 31.06524 -0.6869353
vt 1.278035 -0.6869353
vt -28.50918 3.682652
vt -13.61557 -0.6869353
vt -28.50918 -0.6869353
vt 13.63461 -0.6869353
vt 28.53464 3.682652
vt 28.53464 -0.6869353
vt -1.265409 -0.6869353
vt -31.06545 3.682652
vt -16.16543 -0.6869353
vt -31.06545 -0.6869353
vt -31.06524 35.24097
vt 28.53464 -38.83388
vt -31.06545 -38.83388
vt 28.50918 35.24097
vt 7.136569 -20.26145
vt 16.14411 -1.784957
vt 16.14256 -20.30273
vt 1.319965 12.52195
vt 31.03554 -20.29865
vt 31.03549 -1.780877
vt 31.03559 -38.8164
vt 16.141 -38.82048
vt 1.246407 -38.82456
vt -13.64343 -20.31089
vt -13.63867 -1.793118
vt -13.64819 -38.82864
vt -28.54278 -38.83273
vt -28.53642 -20.31497
vt -28.53006 -1.797199
vt -13.82628 11.40507
vt -28.52369 7.769754
vt 1.259029 35.24647
vt 1.255872 16.72872
vt -13.62915 35.24239
vt -28.51733 35.23831
vt 16.14721 35.25055
vt 15.96453 27.21983
vt 31.03543 16.73688
vt 31.03538 35.25463

vn -1 2.729387E-06 -2.182562E-07
vn 0.999999 0.0004489986 -0.001369562
vn 0.9999997 0.0003682099 -0.0006847807
vn 1 0.0002311456 0
vn 0.9999999 0.0003436968 -4.364303E-07
vn 0 1 0
vn 0 -1 0
vn 0 0 1
vn -0.08678645 0.06525377 -0.9940876
vn -0.1039331 0.06836876 -0.9922316
vn -0.2409381 -2.015026E-05 -0.9705405
vn -0.04799336 0.06489453 -0.9967374
vn 0 0 -1
vn -0.1196876 -0.09630985 -0.9881292
vn -0.2365336 -0.1903331 -0.9527986
vn -0.03071295 0.061718 -0.9976209
vn -0.1649918 -4.241564E-05 -0.986295
vn 0.05251343 -0.0591742 -0.9937192
vn 0 -0.1183754 -0.9929689
vn 0.1050269 2.698922E-05 -0.9944694
vn 0.04302603 -0.04873516 -0.9978846
vn 0.04621065 -0.03541799 -0.9983037
vn 0 -0.09732199 -0.995253
vn 0.04612575 0.01337347 -0.9988461
vn -0.04298622 0.02682977 -0.9987153
vn -0.02148815 0.02682724 -0.9994091
vn 0.01747707 0.03137053 -0.999355
vn 0 0.05360538 -0.9985622
vn -0.32857 -0.2643641 -0.8562855
vn -0.5370039 -0.4320679 -0.7245303
vn -0.1201361 -0.09666028 -0.9880406
vn 0.04926989 0.02672443 -0.9984279
vn 0.03894274 0.0313262 -0.9987503
vn 0.07778814 0.0625741 -0.9950042
vn -0.03893242 0.03131135 -0.9987512
vn -0.0777676 0.06254449 -0.9950078
vn -0.01708677 -0.008798681 -0.9998153
vn -0.08939482 -0.1759634 -0.9803292
vn -0.03416723 1.090915E-07 -0.9994161
vn 0.09092466 -0.01751648 -0.9957037
vn -0.07007182 -0.2689084 -0.9606135
vn -0.3123468 -0.4863958 -0.8160017

usemtl M_BG1
f 3/3/1 2/2/1 1/1/1
f 10/10/4 9/9/3 8/8/2
f 7/17/6 5/16/6 15/15/6
f 14/24/7 12/23/7 18/22/7
f 23/35/11 22/34/10 21/33/9
f 20/40/13 23/35/14 19/41/14
f 21/33/15 19/41/14 23/35/14
f 26/43/17 25/42/16 24/36/12
f 26/43/23 27/48/22 11/47/21
f 17/52/28 27/48/25 16/50/26
f 10/53/13 8/49/24 17/52/32
f 29/55/34 15/54/33 28/51/27
f 7/57/13 15/54/35 6/56/35
f 29/55/36 6/56/35 15/54/35
f 6/56/39 29/55/38 4/38/37
f 28/51/42 24/36/41 29/55/38
f 4/4/1 1/1/1 2/2/1
f 2/2/1 5/5/1 4/4/1
f 6/6/1 4/4/1 5/5/1
f 5/5/1 7/7/1 6/6/1
f 11/11/3 8/8/2 9/9/3
f 9/9/3 12/12/5 11/11/3
f 13/13/5 11/11/3 12/12/5
f 12/12/5 14/14/5 13/13/5
f 16/18/6 15/15/6 5/16/6
f 5/16/6 9/19/6 16/18/6
f 17/20/6 16/18/6 9/19/6
f 9/19/6 10/21/6 17/20/6
f 19/25/7 18/22/7 12/23/7
f 12/23/7 2/26/7 19/25/7
f 20/27/7 19/25/7 2/26/7
f 2/26/7 3/28/7 20/27/7
f 5/29/8 2/31/8 12/30/8
f 12/30/8 9/32/8 5/29/8
f 25/42/16 21/33/9 22/34/10
f 22/34/10 24/36/12 25/42/16
f 1/37/13 4/38/13 22/34/13
f 22/34/13 23/35/13 1/37/13
f 3/39/13 1/37/13 23/35/13
f 23/35/13 20/40/13 3/39/13
f 18/44/18 19/41/19 21/33/18
f 21/33/18 25/42/20 18/44/18
f 14/45/13 18/44/13 25/42/13
f 25/42/13 13/46/13 14/45/13
f 13/46/13 25/42/13 26/43/13
f 26/43/13 11/47/13 13/46/13
f 8/49/24 11/47/21 27/48/22
f 27/48/22 17/52/32 8/49/24
f 15/54/33 16/50/26 27/48/25
f 27/48/25 28/51/27 15/54/33
f 26/43/29 24/36/30 28/51/29
f 28/51/29 27/48/31 26/43/29
f 22/34/40 4/38/37 29/55/38
f 29/55/38 24/36/41 22/34/40

