# ProBuilder 5.2.2
# https://unity3d.com/unity/features/worldbuilding/probuilder
# 2024-06-13 6:15:16 PM

mtllib ./lvl_cliff_1.mtl
o lvl cliff 1

g Cube
v -11.75763 5.839348 0
v -11.75763 5.595352 0
v -11.75763 3.620545 -2.013643
v -12.48475 5.83934 -2.416372
v -10.32798 3.005463 -4.027287
v -11.75763 5.71735 -4.027287
v -11.75763 5.839348 -4.027287
v -11.75763 5.961346 -4.027287
v -11.75763 6.083344 -4.027287
v -11.75763 6.083344 -2.013643
v -11.75763 6.083344 0
v -8.818224 5.139923 -4.261976
v -8.818225 4.668228 -4.34499
v -8.818224 2.450104 -4.027287
v -5.878817 3.050598 -4.027287
v -5.878816 2.166168 -4.027287
v -5.878816 4.440506 -4.618278
v -1.426045 2.566253 -4.027287
v -2.955902 2.073997 -3.738002
v -2.939408 1.398838 -4.027287
v -2.939408 6.083344 -4.027287
v -5.878817 6.083344 -4.027287
v -3.608982 5.261932 -4.492075
v -1.529048 4.912216 -4.647656
v -8.818225 6.083344 -4.027287
v -7.848595 5.611633 -4.322961
v -5.878817 6.639663 -2.09453
v -5.878817 6.083344 0
v -5.878816 2.797676 0
v -5.878816 1.233093 -2.416372
v 0 6.083344 0
v 0 3.041672 0
v 0 2.384186E-07 0
v 0 1.520836 -4.027287
v 0 0.7604181 -4.027287
v 0 2.384186E-07 -4.027287
v 1.220864 2.28125 -4.027287
v 1.362286 3.041672 -4.027287
v 0 6.083344 -4.027287
v 1.110106 5.322921 -4.027287
v 0 4.562508 -4.027287
v 1.221575 3.802093 -4.027287
v 1.107592 6.402801 -3.020465
v 2.086189 3.041672 -2.684858
v -1.795511E-07 6.302399 -2.013643
v 0.9682935 6.083343 -1.006822
v 0 2.384186E-07 -3.020465
v 0 2.384186E-07 -2.013643
v 0 2.384186E-07 -1.006822

vt 2.383147 4.647625
vt 2.383147 4.404876
vt 0.4113004 2.398961
vt 0.1643096 4.526337
vt -1.85032 1.887111
vt -1.560546 4.443873
vt -1.560546 4.565248
vt -1.560546 4.686624
vt -1.560546 4.807999
vt 0.4113006 4.849187
vt 2.383147 4.890376
vt 11.78362 5.477794
vt 11.78362 5.356249
vt 8.845805 4.759123
vt 8.846347 4.282035
vt 10.354 2.653616
vt 8.844275 2.09947
vt 5.904931 2.69609
vt 5.90493 1.81494
vt 5.908781 4.029997
vt 1.452253 2.211045
vt 2.980193 1.746361
vt 2.965585 1.048808
vt 2.965585 5.715942
vt 5.904931 5.717589
vt 3.638173 4.857963
vt 1.559297 4.494992
vt 8.844276 5.719237
vt 7.876594 5.223294
vt 11.78362 5.720885
vt 11.78362 5.599339
vt 8.759266 -3.760059
vt 5.819993 -3.761268
vt 5.814639 -1.806507
vt 2.880721 -3.762477
vt 11.69854 -1.747046
vt 5.819993 0.2623406
vt 11.69854 0.2647583
vt 11.69854 -3.75885
vt -12.93769 0.04701094
vt -6.468843 0.02350547
vt -12.29608 -2.025261
vt -5.960515 -2.438897
vt -3.234421 -4.013479
vt -6.263669 -4.020803
vt -9.135862 -4.04273
vt -10.74415 -4.041621
vt 0 6.083344
vt 0 3.041672
vt -5.878817 6.083344
vt 0 2.384186E-07
vt -5.878816 2.797676
vt -11.75763 5.595352
vt -11.75763 5.839348
vt -11.75763 6.083344
vt 0.02623882 1.168705
vt 0.02623882 0.4111071
vt 0.02623882 -0.346491
vt -1.194599 1.925615
vt -1.336018 2.683138
vt 0.02623882 5.714294
vt -1.083844 4.956069
vt 0.02623882 4.199098
vt -1.19531 3.440818
vt 2.866287 6.464725
vt 2.41603 3.151402
vt 1.999185 6.306738
vt 0.8837655 6.127694
vt 3.99837 6.099319
vt 3.865579 5.391866
vt 3.99837 4.580184
vt 3.852245 3.877973
vt 3.835413 3.125009
vt 3.85233 2.358798
vt 3.99837 1.541916
vt 3.99837 0.7823486
vt 2.998777 0.01708616
vt 3.99837 0.02278147
vt 1.999185 0.01139085
vt 0.9995924 0.005695547
vt 0 3.038269
vt 0 6.076538
vt -0.05855073 -3.763686
vt -1.169167 -2.74459
vt -0.0606589 -1.742522
vt -1.026799 -0.7463775
vt -0.05855073 0.2599229
vt -7.746126E-08 -1.006308
vt -7.746126E-08 -2.012616
vt -7.746126E-08 -3.018924
vt -7.746126E-08 -4.025232

vn -1 -3.908571E-06 3.833189E-06
vn -0.926432 -0.2529987 0.278775
vn -0.8108307 -0.3507575 -0.4685326
vn -0.8312564 -0.4382205 -0.342017
vn -0.9114544 0 -0.4114011
vn -0.3181419 0.9480431 0
vn -0.371204 0.9218088 0.1116967
vn -0.0795892 0 -0.9968278
vn -0.0445408 0.1731552 -0.9838869
vn -0.131652 -0.06940409 -0.9888634
vn -0.05208378 -0.1415914 -0.9885541
vn 0.028953 -0.1417244 -0.9894826
vn 0 0 -1
vn -0.07790083 0.1728006 -0.9818714
vn -0.1151048 -0.3886971 -0.9141474
vn -0.04252446 -0.3909439 -0.9194316
vn -0.04369875 -0.4017396 -0.9147108
vn 0.09849004 5.310055E-08 -0.995138
vn 0.1028203 0.3938734 -0.9133958
vn 0 0.4924686 -0.8703302
vn 0.01566259 0.4827068 -0.8756419
vn -0.03244916 0.2387771 -0.9705321
vn 0.02109461 -0.2547309 -0.9667819
vn 0 0.5311034 -0.847307
vn 0.00756711 0.5082121 -0.8611987
vn -0.02075278 0.5000161 -0.8657674
vn -0.0754232 0 -0.9971516
vn -0.07405165 0.02332379 -0.9969816
vn -0.04314872 -0.04036342 -0.998253
vn -0.0489325 0.282407 -0.9580458
vn 0 0.9609832 -0.276607
vn -0.08759017 0.9627751 0.2557188
vn 0 1 0
vn -0.09519114 0.9857131 -0.1389549
vn -0.3217043 -0.6760042 0.6629665
vn -0.2905575 -0.8031901 0.5200595
vn -0.2203403 -0.8440567 -0.488895
vn -0.08329655 -0.8623165 -0.4994715
vn -0.3769395 -0.9261615 -0.01189977
vn -0.3449319 -0.9377083 0.04153483
vn 0 0 1
vn -0.01632983 0.39345 -0.919201
vn -0.1282823 -0.1749889 -0.9761775
vn 0 0.4681002 -0.8836754
vn 0.1814101 0.2648324 -0.9470766
vn 0.2678351 -0.3910048 -0.8805565
vn 0.4078509 0.6551958 -0.6359057
vn 0.1162937 -0.2491434 -0.961459
vn 0.6369636 0.2579876 0.7264432
vn 0.6647837 0.5330576 -0.5233664
vn 0.4235216 0.6182801 -0.662087
vn 0.933489 0.2457051 -0.2612036
vn 0.272955 -0.3984792 -0.8756197
vn 0.523322 0.8406954 0.1391593
vn 0.8687347 0.1607538 -0.4684639
vn 0.868621 -0.1615445 -0.4684026
vn 0.5235773 -0.8406168 0.1386733
vn 0.5411305 0 -0.8409386
vn 0.7833875 -0.4959705 -0.3745895
vn 1 0 0
vn 0.8246692 -0.5656152 0
vn 0.7738435 -0.1990333 0.601292
vn 0.7887233 -0.04822383 0.6128539
vn 0.720763 0 0.6931816
vn 0 0.9531702 -0.3024343
vn -0.08118054 0.9966484 0.01008209
vn 0.05884368 0.9795396 -0.1924565
vn 0.05429343 0.9852712 0.1621511
vn 0.03772002 0.9658019 0.2565227
vn -0.4297132 -0.9029655 0
vn -0.2929415 -0.8025798 0.5196643
vn -0.2052847 -0.9787023 0
vn -0.1632086 -0.9058042 -0.391001

usemtl Lit
f 3/3/1 2/2/1 1/1/1
f 4/4/2 3/3/2 1/1/2
f 3/3/3 4/4/3 5/5/3
f 4/4/4 6/6/4 5/5/4
f 4/4/5 7/7/5 6/6/5
f 8/8/5 7/7/5 4/4/5
f 9/9/5 8/8/5 4/4/5
f 9/9/6 4/4/6 10/10/6
f 10/10/1 1/1/1 11/11/1
f 10/10/7 4/4/7 1/1/7
f 12/14/8 6/13/8 7/12/8
f 13/15/9 6/13/9 12/14/9
f 13/15/10 5/16/10 6/13/10
f 14/17/11 5/16/11 13/15/11
f 15/18/12 14/17/12 13/15/12
f 16/19/13 14/17/13 15/18/13
f 17/20/14 13/15/14 12/14/14
f 15/18/15 13/15/15 17/20/15
f 18/21/16 15/18/16 17/20/16
f 18/21/17 19/22/17 15/18/17
f 19/22/18 16/19/18 15/18/18
f 20/23/19 16/19/19 19/22/19
f 23/26/20 22/25/20 21/24/20
f 24/27/21 23/26/21 21/24/21
f 24/27/22 17/20/22 23/26/22
f 24/27/23 18/21/23 17/20/23
f 26/29/24 25/28/24 22/25/24
f 23/26/25 26/29/25 22/25/25
f 8/31/13 9/30/13 25/28/13
f 26/29/26 8/31/26 25/28/26
f 26/29/27 7/12/27 8/31/27
f 12/14/28 7/12/28 26/29/28
f 23/26/29 12/14/29 26/29/29
f 23/26/30 17/20/30 12/14/30
f 27/34/31 22/33/31 25/32/31
f 21/35/31 22/33/31 27/34/31
f 28/37/32 27/34/32 10/36/32
f 28/37/33 10/36/33 11/38/33
f 25/32/33 9/39/33 10/36/33
f 27/34/34 25/32/34 10/36/34
f 3/42/35 29/41/35 2/40/35
f 3/42/36 30/43/36 29/41/36
f 30/43/37 16/45/37 20/44/37
f 14/46/38 16/45/38 30/43/38
f 3/42/39 14/46/39 30/43/39
f 3/42/40 5/47/40 14/46/40
f 28/50/41 32/49/41 31/48/41
f 29/52/41 33/51/41 32/49/41
f 28/50/41 29/52/41 32/49/41
f 28/50/41 2/53/41 29/52/41
f 28/50/41 1/54/41 2/53/41
f 28/50/41 11/55/41 1/54/41
f 34/56/42 20/23/42 19/22/42
f 34/56/13 35/57/13 20/23/13
f 36/58/13 20/23/13 35/57/13
f 34/56/43 19/22/43 18/21/43
f 34/56/13 18/21/13 37/59/13
f 38/60/13 37/59/13 18/21/13
f 39/61/44 24/27/44 21/24/44
f 39/61/45 40/62/45 24/27/45
f 40/62/46 41/63/46 24/27/46
f 42/64/47 24/27/47 41/63/47
f 42/64/48 18/21/48 24/27/48
f 42/64/13 38/60/13 18/21/13
f 45/67/49 44/66/49 43/65/49
f 44/66/50 45/67/50 46/68/50
f 40/70/51 39/69/51 43/65/51
f 40/70/52 43/65/52 44/66/52
f 44/66/53 41/71/53 40/70/53
f 44/66/54 42/72/54 41/71/54
f 44/66/55 38/73/55 42/72/55
f 37/74/56 38/73/56 44/66/56
f 34/75/57 37/74/57 44/66/57
f 35/76/58 34/75/58 44/66/58
f 44/66/59 47/77/59 35/76/59
f 47/77/60 36/78/60 35/76/60
f 48/79/61 47/77/61 44/66/61
f 49/80/61 48/79/61 44/66/61
f 32/81/62 49/80/62 44/66/62
f 32/81/60 33/51/60 49/80/60
f 32/81/63 44/66/63 46/68/63
f 31/82/64 32/81/64 46/68/64
f 43/84/65 39/83/65 21/35/65
f 45/85/66 43/84/66 21/35/66
f 45/85/67 21/35/67 27/34/67
f 46/86/68 45/85/68 27/34/68
f 27/34/69 28/37/69 46/86/69
f 28/37/33 31/87/33 46/86/33
f 49/88/70 33/51/70 29/41/70
f 30/43/71 49/88/71 29/41/71
f 30/43/72 48/89/72 49/88/72
f 30/43/73 20/44/73 48/89/73
f 20/44/70 47/90/70 48/89/70
f 20/44/70 36/91/70 47/90/70

